-----------------------BEGIN MISSING CARDS-------------- 5
Missing...  cardid 241 Dark Pact
Missing...  cardid 433 Pharoah's Coffin
-----------------------BEGIN UNSEEN NAMES--------------
FOUND default but unused.
