<font>
  <info face="bit8" size="24" bold="0" italic="0" charset="" unicode="" stretchH="100" smooth="1" aa="1" padding="2,2,2,2" spacing="0,0" outline="0"/>
  <common lineHeight="24" base="24" scaleW="256" scaleH="512" pages="1" packed="0"/>
  <pages>
    <page id="0" file="bit8.png"/>
  </pages>
  <chars count="91">
    <char id="97" x="2" y="2" width="23" height="17" xoffset="0" yoffset="6" xadvance="24" page="0" chnl="15"/>
    <char id="98" x="2" y="21" width="23" height="23" xoffset="0" yoffset="0" xadvance="24" page="0" chnl="15"/>
    <char id="99" x="2" y="46" width="23" height="17" xoffset="0" yoffset="6" xadvance="24" page="0" chnl="15"/>
    <char id="100" x="2" y="65" width="23" height="23" xoffset="0" yoffset="0" xadvance="24" page="0" chnl="15"/>
    <char id="101" x="2" y="90" width="23" height="17" xoffset="0" yoffset="6" xadvance="24" page="0" chnl="15"/>
    <char id="102" x="2" y="109" width="20" height="23" xoffset="3" yoffset="0" xadvance="24" page="0" chnl="15"/>
    <char id="103" x="2" y="134" width="23" height="20" xoffset="0" yoffset="6" xadvance="24" page="0" chnl="15"/>
    <char id="104" x="24" y="109" width="23" height="23" xoffset="0" yoffset="0" xadvance="24" page="0" chnl="15"/>
    <char id="105" x="27" y="2" width="20" height="23" xoffset="3" yoffset="0" xadvance="24" page="0" chnl="15"/>
    <char id="106" x="27" y="27" width="17" height="26" xoffset="3" yoffset="0" xadvance="24" page="0" chnl="15"/>
    <char id="107" x="27" y="55" width="23" height="23" xoffset="0" yoffset="0" xadvance="24" page="0" chnl="15"/>
    <char id="108" x="46" y="27" width="20" height="23" xoffset="3" yoffset="0" xadvance="24" page="0" chnl="15"/>
    <char id="109" x="49" y="2" width="23" height="17" xoffset="0" yoffset="6" xadvance="24" page="0" chnl="15"/>
    <char id="110" x="27" y="80" width="23" height="17" xoffset="0" yoffset="6" xadvance="24" page="0" chnl="15"/>
    <char id="111" x="2" y="156" width="23" height="17" xoffset="0" yoffset="6" xadvance="24" page="0" chnl="15"/>
    <char id="112" x="2" y="175" width="23" height="20" xoffset="0" yoffset="6" xadvance="24" page="0" chnl="15"/>
    <char id="113" x="2" y="197" width="23" height="20" xoffset="0" yoffset="6" xadvance="24" page="0" chnl="15"/>
    <char id="114" x="2" y="219" width="20" height="17" xoffset="3" yoffset="6" xadvance="24" page="0" chnl="15"/>
    <char id="115" x="2" y="238" width="23" height="17" xoffset="0" yoffset="6" xadvance="24" page="0" chnl="15"/>
    <char id="116" x="2" y="257" width="20" height="23" xoffset="3" yoffset="0" xadvance="24" page="0" chnl="15"/>
    <char id="117" x="24" y="219" width="23" height="17" xoffset="0" yoffset="6" xadvance="24" page="0" chnl="15"/>
    <char id="118" x="27" y="134" width="20" height="17" xoffset="3" yoffset="6" xadvance="24" page="0" chnl="15"/>
    <char id="119" x="27" y="153" width="23" height="17" xoffset="0" yoffset="6" xadvance="24" page="0" chnl="15"/>
    <char id="120" x="27" y="172" width="23" height="17" xoffset="0" yoffset="6" xadvance="24" page="0" chnl="15"/>
    <char id="121" x="27" y="191" width="23" height="20" xoffset="0" yoffset="6" xadvance="24" page="0" chnl="15"/>
    <char id="122" x="49" y="99" width="23" height="17" xoffset="0" yoffset="6" xadvance="24" page="0" chnl="15"/>
    <char id="65" x="49" y="118" width="23" height="23" xoffset="0" yoffset="0" xadvance="24" page="0" chnl="15"/>
    <char id="66" x="52" y="52" width="23" height="23" xoffset="0" yoffset="0" xadvance="24" page="0" chnl="15"/>
    <char id="67" x="68" y="21" width="23" height="23" xoffset="0" yoffset="0" xadvance="24" page="0" chnl="15"/>
    <char id="68" x="2" y="282" width="23" height="23" xoffset="0" yoffset="0" xadvance="24" page="0" chnl="15"/>
    <char id="69" x="24" y="257" width="23" height="23" xoffset="0" yoffset="0" xadvance="24" page="0" chnl="15"/>
    <char id="70" x="2" y="307" width="23" height="23" xoffset="0" yoffset="0" xadvance="24" page="0" chnl="15"/>
    <char id="71" x="2" y="332" width="23" height="23" xoffset="0" yoffset="0" xadvance="24" page="0" chnl="15"/>
    <char id="72" x="2" y="357" width="23" height="23" xoffset="0" yoffset="0" xadvance="24" page="0" chnl="15"/>
    <char id="73" x="2" y="382" width="20" height="23" xoffset="3" yoffset="0" xadvance="24" page="0" chnl="15"/>
    <char id="74" x="2" y="407" width="23" height="23" xoffset="0" yoffset="0" xadvance="24" page="0" chnl="15"/>
    <char id="75" x="24" y="382" width="23" height="23" xoffset="0" yoffset="0" xadvance="24" page="0" chnl="15"/>
    <char id="76" x="2" y="432" width="20" height="23" xoffset="3" yoffset="0" xadvance="24" page="0" chnl="15"/>
    <char id="77" x="2" y="457" width="23" height="23" xoffset="0" yoffset="0" xadvance="24" page="0" chnl="15"/>
    <char id="78" x="24" y="432" width="23" height="23" xoffset="0" yoffset="0" xadvance="24" page="0" chnl="15"/>
    <char id="79" x="27" y="407" width="23" height="23" xoffset="0" yoffset="0" xadvance="24" page="0" chnl="15"/>
    <char id="80" x="2" y="482" width="23" height="23" xoffset="0" yoffset="0" xadvance="24" page="0" chnl="15"/>
    <char id="81" x="27" y="457" width="23" height="23" xoffset="0" yoffset="0" xadvance="24" page="0" chnl="15"/>
    <char id="82" x="49" y="432" width="23" height="23" xoffset="0" yoffset="0" xadvance="24" page="0" chnl="15"/>
    <char id="83" x="27" y="482" width="23" height="23" xoffset="0" yoffset="0" xadvance="24" page="0" chnl="15"/>
    <char id="84" x="52" y="457" width="20" height="23" xoffset="3" yoffset="0" xadvance="24" page="0" chnl="15"/>
    <char id="85" x="52" y="482" width="23" height="23" xoffset="0" yoffset="0" xadvance="24" page="0" chnl="15"/>
    <char id="86" x="27" y="282" width="23" height="23" xoffset="0" yoffset="0" xadvance="24" page="0" chnl="15"/>
    <char id="87" x="49" y="213" width="23" height="23" xoffset="0" yoffset="0" xadvance="24" page="0" chnl="15"/>
    <char id="88" x="49" y="238" width="23" height="23" xoffset="0" yoffset="0" xadvance="24" page="0" chnl="15"/>
    <char id="89" x="52" y="143" width="20" height="23" xoffset="3" yoffset="0" xadvance="24" page="0" chnl="15"/>
    <char id="90" x="52" y="168" width="23" height="23" xoffset="0" yoffset="0" xadvance="24" page="0" chnl="15"/>
    <char id="48" x="27" y="307" width="23" height="23" xoffset="0" yoffset="0" xadvance="24" page="0" chnl="15"/>
    <char id="49" x="27" y="332" width="20" height="23" xoffset="3" yoffset="0" xadvance="24" page="0" chnl="15"/>
    <char id="50" x="27" y="357" width="23" height="23" xoffset="0" yoffset="0" xadvance="24" page="0" chnl="15"/>
    <char id="51" x="49" y="332" width="23" height="23" xoffset="0" yoffset="0" xadvance="24" page="0" chnl="15"/>
    <char id="52" x="49" y="382" width="23" height="23" xoffset="0" yoffset="0" xadvance="24" page="0" chnl="15"/>
    <char id="53" x="52" y="357" width="23" height="23" xoffset="0" yoffset="0" xadvance="24" page="0" chnl="15"/>
    <char id="54" x="52" y="407" width="23" height="23" xoffset="0" yoffset="0" xadvance="24" page="0" chnl="15"/>
    <char id="55" x="74" y="382" width="23" height="23" xoffset="0" yoffset="0" xadvance="24" page="0" chnl="15"/>
    <char id="56" x="74" y="432" width="23" height="23" xoffset="0" yoffset="0" xadvance="24" page="0" chnl="15"/>
    <char id="57" x="77" y="407" width="23" height="23" xoffset="0" yoffset="0" xadvance="24" page="0" chnl="15"/>
    <char id="33" x="74" y="457" width="11" height="23" xoffset="6" yoffset="0" xadvance="24" page="0" chnl="15"/>
    <char id="8470" x="77" y="482" width="23" height="23" xoffset="0" yoffset="0" xadvance="24" page="0" chnl="15"/>
    <char id="59" x="52" y="77" width="11" height="20" xoffset="3" yoffset="3" xadvance="24" page="0" chnl="15"/>
    <char id="37" x="87" y="457" width="23" height="23" xoffset="0" yoffset="0" xadvance="24" page="0" chnl="15"/>
    <char id="58" x="27" y="238" width="8" height="17" xoffset="6" yoffset="3" xadvance="24" page="0" chnl="15"/>
    <char id="63" x="99" y="432" width="23" height="23" xoffset="0" yoffset="0" xadvance="24" page="0" chnl="15"/>
    <char id="42" x="74" y="2" width="23" height="17" xoffset="0" yoffset="3" xadvance="24" page="0" chnl="15"/>
    <char id="40" x="102" y="482" width="14" height="23" xoffset="6" yoffset="0" xadvance="24" page="0" chnl="15"/>
    <char id="41" x="112" y="457" width="14" height="23" xoffset="3" yoffset="0" xadvance="24" page="0" chnl="15"/>
    <char id="95" x="49" y="263" width="23" height="5" xoffset="0" yoffset="21" xadvance="24" page="0" chnl="15"/>
    <char id="43" x="52" y="193" width="20" height="17" xoffset="3" yoffset="3" xadvance="24" page="0" chnl="15"/>
    <char id="45" x="27" y="99" width="20" height="5" xoffset="3" yoffset="9" xadvance="24" page="0" chnl="15"/>
    <char id="61" x="65" y="77" width="23" height="11" xoffset="0" yoffset="6" xadvance="24" page="0" chnl="15"/>
    <char id="46" x="37" y="238" width="8" height="8" xoffset="6" yoffset="15" xadvance="24" page="0" chnl="15"/>
    <char id="44" x="118" y="482" width="11" height="11" xoffset="3" yoffset="15" xadvance="24" page="0" chnl="15"/>
    <char id="47" x="77" y="46" width="23" height="23" xoffset="0" yoffset="0" xadvance="24" page="0" chnl="15"/>
    <char id="124" x="93" y="21" width="8" height="23" xoffset="9" yoffset="0" xadvance="24" page="0" chnl="15"/>
    <char id="92" x="52" y="270" width="23" height="23" xoffset="0" yoffset="0" xadvance="24" page="0" chnl="15"/>
    <char id="34" x="118" y="495" width="17" height="11" xoffset="3" yoffset="0" xadvance="24" page="0" chnl="15"/>
    <char id="39" x="99" y="2" width="8" height="11" xoffset="6" yoffset="0" xadvance="24" page="0" chnl="15"/>
    <char id="64" x="52" y="295" width="23" height="23" xoffset="0" yoffset="0" xadvance="24" page="0" chnl="15"/>
    <char id="35" x="74" y="320" width="23" height="23" xoffset="0" yoffset="0" xadvance="24" page="0" chnl="15"/>
    <char id="36" x="77" y="345" width="23" height="23" xoffset="0" yoffset="0" xadvance="24" page="0" chnl="15"/>
    <char id="94" x="52" y="320" width="17" height="8" xoffset="3" yoffset="0" xadvance="24" page="0" chnl="15"/>
    <char id="38" x="99" y="370" width="23" height="23" xoffset="0" yoffset="0" xadvance="24" page="0" chnl="15"/>
    <char id="123" x="102" y="395" width="14" height="23" xoffset="6" yoffset="0" xadvance="24" page="0" chnl="15"/>
    <char id="125" x="118" y="395" width="14" height="23" xoffset="3" yoffset="0" xadvance="24" page="0" chnl="15"/>
    <char id="91" x="124" y="420" width="14" height="23" xoffset="6" yoffset="0" xadvance="24" page="0" chnl="15"/>
    <char id="93" x="128" y="445" width="14" height="23" xoffset="3" yoffset="0" xadvance="24" page="0" chnl="15"/>
    <char id="32" x="0" y="0" width="0" height="0" xoffset="3" yoffset="0" xadvance="24" page="0" chnl="15"/>
  </chars>
</font>