
{
    "decks" : [
        {
            "36" : 1,
            "209" : 1,
            "219" : 1,
            "118" : 1,
            "497" : 40,
            "498" : 40,
            "499" : 40,
            "name" : "DraftDeckPlayer 0"
        },
        {
            "11" : 1,
            "504" : 1,
            "1"   : 1,
            "302" : 1,
            "497" : 40,
            "498" : 40,
            "499" : 40,
            "name" : "DraftDeckPlayer 1"
        }
    ]
}