{
    "decks": [
        {
            "416" : 8,
            "19" : 5
        },
        {
            "416" : 8,
            "19" : 5
        },
        {
            "42" : 8,
            "36" : 5,
            "403" : 5,
            "1666" : 5
        }  
    ]
}